co/alt6/projet/appuml/entity/Experience.class
co/alt6/projet/appuml/entity/Client.class
co/alt6/projet/appuml/entity/Transaction.class
co/alt6/projet/appuml/entity/Projet.class
co/alt6/projet/appuml/entity/Competence.class
co/alt6/projet/appuml/entity/Message.class
co/alt6/projet/appuml/entity/Avis.class
co/alt6/projet/appuml/Main.class
co/alt6/projet/appuml/entity/Devis.class
co/alt6/projet/appuml/entity/PorteurDeProjet.class
co/alt6/projet/appuml/entity/Developpeur.class
